[
  {
    "guid": "97",
    "name": "美国",
    "language": "Simplified",
    "url": "http://imagetw.ilove.ren/imagedata_apollo/coutry/America.png",
    "addTime": "2017/11/24 0:00",
    "type": 0,
    "used": 0,
    "countryShort": "US",
    "countryEnglish": "United States",
    "countryNum": "01"
  },
  {
    "guid": "16",
    "name": "澳大利亚",
    "language": "Simplified",
    "url": "http://imagetw.ilove.ren/imagedata_apollo/coutry/Australia.png",
    "addTime": "2017/11/24 0:00",
    "type": 0,
    "used": 0,
    "countryShort": "AU",
    "countryEnglish": "Australia",
    "countryNum": "11"
  },
  {
    "guid": "67",
    "name": "加拿大",
    "language": "Simplified",
    "url": "http://imagetw.ilove.ren/imagedata_apollo/coutry/Canada.png",
    "addTime": "2017/11/24 0:00",
    "type": 0,
    "used": 0,
    "countryShort": "CA",
    "countryEnglish": "Canada",
    "countryNum": "15"
  },
  {
    "guid": "174",
    "name": "香港",
    "language": "Simplified",
    "url": "http://imagetw.ilove.ren/imagedata_apollo/coutry/HongKong.png",
    "addTime": "2017/11/24 0:00",
    "type": 0,
    "used": 0,
    "countryShort": "HK",
    "countryEnglish": "Hong Kong",
    "countryNum": "09"
  },
  {
    "guid": "161",
    "name": "印度",
    "language": "Simplified",
    "url": "http://imagetw.ilove.ren/imagedata_apollo/coutry/India.png",
    "addTime": "2017/11/24 0:00",
    "type": 0,
    "used": 0,
    "countryShort": "IN",
    "countryEnglish": "India",
    "countryNum": "12"
  },
  {
    "guid": "162",
    "name": "印度尼西亚",
    "language": "Simplified",
    "url": "http://imagetw.ilove.ren/imagedata_apollo/coutry/Indonesia.png",
    "addTime": "2017/11/24 0:00",
    "type": 0,
    "used": 0,
    "countryShort": "ID",
    "countryEnglish": "Indonesia",
    "countryNum": "13"
  },
  {
    "guid": "10",
    "name": "爱尔兰",
    "language": "Simplified",
    "url": "http://imagetw.ilove.ren/imagedata_apollo/coutry/Ireland.png",
    "addTime": "2017/11/24 0:00",
    "type": 0,
    "used": 0,
    "countryShort": "IE",
    "countryEnglish": "Ireland",
    "countryNum": "17"
  },
  {
    "guid": "152",
    "name": "新西兰",
    "language": "Simplified",
    "url": "http://imagetw.ilove.ren/imagedata_apollo/coutry/NewZealand.png",
    "addTime": "2017/11/24 0:00",
    "type": 0,
    "used": 0,
    "countryShort": "NZ",
    "countryEnglish": "NewZealand",
    "countryNum": "16"
  },
  {
    "guid": "20",
    "name": "巴基斯坦",
    "language": "Simplified",
    "url": "http://imagetw.ilove.ren/imagedata_apollo/coutry/Pakistan.png",
    "addTime": "2017/11/24 0:00",
    "type": 0,
    "used": 0,
    "countryShort": "PK",
    "countryEnglish": "Pakistan",
    "countryNum": "24"
  },
  {
    "guid": "46",
    "name": "菲律宾",
    "language": "Simplified",
    "url": "http://imagetw.ilove.ren/imagedata_apollo/coutry/Philippines.png",
    "addTime": "2017/11/24 0:00",
    "type": 0,
    "used": 0,
    "countryShort": "PH",
    "countryEnglish": "Philippines",
    "countryNum": "25"
  },
  {
    "guid": "150",
    "name": "新加坡",
    "language": "Simplified",
    "url": "http://imagetw.ilove.ren/imagedata_apollo/coutry/Singapore.png",
    "addTime": "2017/11/24 0:00",
    "type": 0,
    "used": 0,
    "countryShort": "SG",
    "countryEnglish": "Singapore",
    "countryNum": "10"
  },
  {
    "guid": "108",
    "name": "南非",
    "language": "Simplified",
    "url": "http://imagetw.ilove.ren/imagedata_apollo/coutry/SouthAfrica.png",
    "addTime": "2017/11/24 0:00",
    "type": 0,
    "used": 0,
    "countryShort": "ZA",
    "countryEnglish": "South Africa",
    "countryNum": "18"
  },
  {
    "guid": "163",
    "name": "英国",
    "language": "Simplified",
    "url": "http://imagetw.ilove.ren/imagedata_apollo/coutry/UnitedKingdom.png",
    "addTime": "2017/11/24 0:00",
    "type": 0,
    "used": 0,
    "countryShort": "GB",
    "countryEnglish": "United Kingdom",
    "countryNum": "14"
  },
  {
    "guid": "173",
    "name": "台湾",
    "language": "Simplified",
    "url": "http://imagetw.ilove.ren/imagedata_apollo/coutry/Taiwan.png",
    "addTime": "2017/11/24 0:00",
    "type": 0,
    "used": 0,
    "countryShort": "TW",
    "countryEnglish": "Taiwan",
    "countryNum": "08"
  }
]