[
  {
    "guid": "12",
    "name": "Sagittarius",
    "language": "English"
  },
  {
    "guid": "11",
    "name": "Scorpio",
    "language": "English"
  },
  {
    "guid": "10",
    "name": "Libra",
    "language": "English"
  },
  {
    "guid": "9",
    "name": "Virgo",
    "language": "English"
  },
  {
    "guid": "8",
    "name": "Leo",
    "language": "English"
  },
  {
    "guid": "7",
    "name": "Cancer",
    "language": "English"
  },
  {
    "guid": "6",
    "name": "Gemini",
    "language": "English"
  },
  {
    "guid": "5",
    "name": "Taurus",
    "language": "English"
  },
  {
    "guid": "4",
    "name": "Aries",
    "language": "English"
  },
  {
    "guid": "3",
    "name": "Pisces",
    "language": "English"
  },
  {
    "guid": "2",
    "name": "Aquarius",
    "language": "English"
  },
  {
    "guid": "1",
    "name": "Capricorn",
    "language": "English"
  }
]