{
  "project_info": {
    "project_number": "891452007007",
    "firebase_url": "https://livedating-us-04-23.firebaseio.com",
    "project_id": "livedating-us-04-23",
    "storage_bucket": "livedating-us-04-23.appspot.com"
  },
  "client": [
    {
      "client_info": {
        "mobilesdk_app_id": "1:891452007007:android:3d448798ab412091",
        "android_client_info": {
          "package_name": "com.popo.video"
        }
      },
      "oauth_client": [
        {
          "client_id": "891452007007-gmnadnvb6ukgvcvai2qjcv27h4jdp6s6.apps.googleusercontent.com",
          "client_type": 3
        }
      ],
      "api_key": [
        {
          "current_key": "AIzaSyAh1Jv6sKB-JMjR8lNNu9__vpkJmRqUv5A"
        }
      ],
      "services": {
        "analytics_service": {
          "status": 1
        },
        "appinvite_service": {
          "status": 1,
          "other_platform_oauth_client": []
        },
        "ads_service": {
          "status": 2
        }
      }
    }
  ],
  "configuration_version": "1"
}